{
  "name": "apis-object",
  "$schema": "../../../node_modules/nx/schemas/project-schema.json",
  "sourceRoot": "apps/apis/object/src",
  "projectType": "application",
  "targets": {
    "build": {
      "executor": "@nrwl/webpack:webpack",
      "outputs": ["{options.outputPath}"],
      "defaultConfiguration": "production",
      "options": {
        "target": "node",
        "compiler": "tsc",
        "outputPath": "dist/apps/apis/object",
        "main": "apps/apis/object/src/main.ts",
        "tsConfig": "apps/apis/object/tsconfig.app.json",
        "tsPlugins": [
          {
            "name": "@nestjs/swagger/plugin",
            "options": {
              "dtoFileNameSuffix": [".entity.ts", ".dto.ts"],
              "controllerFileNameSuffix": [".controller.ts"],
              "classValidatorShim": true,
              "dtoKeyOfComment": "description",
              "controllerKeyOfComment": "description",
              "introspectComments": true
            }
          }
        ],
        "assets": ["apps/apis/object/src/assets"],
        "isolatedConfig": true,
        "webpackConfig": "apps/apis/object/webpack.config.js"
      },
      "configurations": {
        "development": {},
        "production": {}
      }
    },
    "serve": {
      "executor": "@nrwl/js:node",
      "defaultConfiguration": "development",
      "options": {
        "buildTarget": "apis-object:build"
      },
      "configurations": {
        "development": {
          "buildTarget": "apis-object:build:development"
        },
        "production": {
          "buildTarget": "apis-object:build:production"
        }
      }
    },
    "lint": {
      "executor": "@nrwl/linter:eslint",
      "outputs": ["{options.outputFile}"],
      "options": {
        "lintFilePatterns": ["apps/apis/object/**/*.ts"]
      }
    },
    "test": {
      "executor": "@nrwl/jest:jest",
      "outputs": ["{workspaceRoot}/coverage/{projectRoot}"],
      "options": {
        "jestConfig": "apps/apis/object/jest.config.ts",
        "passWithNoTests": true
      },
      "configurations": {
        "ci": {
          "ci": true,
          "codeCoverage": true
        }
      }
    }
  },
  "tags": []
}
